{
  "repoSpec": {
    "providerOvaUrl": "http://build-squid.eng.vmware.com/build/mts/release/bora-22350086/publish/dsm-va-1.5.0.3191-22350086.ova",
    "tenantOvaUrl": "http://build-squid.eng.vmware.com/build/mts/release/bora-22350057/publish/dsm-standalone_agent-va-1.5.0.2910-22350057.ova"
  },
  "deleteDsmConfig": true,
  "providerSpec": [
    {
      "ip": "10.162.107.42",
      "datastore": "vsanDatastore",
      "viDest": "vi://administrator@vsphere.local:DFQEyl9.+ipd3ZzD@10.162.107.133/dbaas-dc/host/dbaas-cluster/",
      "vmFolder": "DSM",
      "ntp": "ntp.broadcom.net",
      "managementNetwork": "Mgmt",
      "sshUser": "root",
      "sshPassword": "Dsmcdp@123",
      "managementGateway": "10.162.104.1",
      "dns": "192.19.189.10",
      "managementNetmask": "255.255.248.0",
      "providerUserSpec": {
        "providerEmail": "dsm_admin@vmware.com",
        "providerPassword": "VMware@123",
        "providerFirstName": "provider",
        "providerLastName": "vmware",
        "companyName": "VMware-Provider",
        "providerOrgFqdnSuffix": "cdp-DAILY-CI-provider.com"
      },
      "providerRepo": {
        "bucket": "provider-repo",
        "url": "https://10.162.108.199:9000",
        "secretKey": "minioadmin",
        "accessKey": "minioadmin",
        "storageType": "PROVIDERREPO",
        "region": "NA"
      },
      "providerLogRepo": {
        "bucket": "provider-log",
        "url": "https://10.162.108.199:9000",
        "secretKey": "minioadmin",
        "accessKey": "minioadmin",
        "storageType": "PROVIDER_LOG_REPO",
        "region": "NA"
      },
      "providerBackupRepo": {
        "bucket": "provider-backup",
        "url": "https://10.162.108.199:9000",
        "secretKey": "minioadmin",
        "accessKey": "minioadmin",
        "storageType": "PROVIDER_BACKUP_REPO",
        "region": "NA"
      },
      "localStorage": {
        "bucket": "provider-dbbackup",
        "url": "https://10.162.108.199:9000",
        "secretKey": "minioadmin",
        "accessKey": "minioadmin",
        "storageType": "",
        "region": "NA"
      },
      "alternateLocalStorage": {
        "bucket": "alternate-dbbackup",
        "url": "https://10.162.108.199:9000",
        "secretKey": "minioadmin",
        "accessKey": "minioadmin",
        "storageType": "",
        "region": "NA"
      },
      "tanzunetSpec": {
        "refreshToken": "",
        "releaseNumber": "",
        "deliverablesRelease": ""
      },
      "vcSpec": {
        "vcIp": "10.162.107.133",
        "vcUser": "administrator@vsphere.local",
        "vcPassword": "DFQEyl9.+ipd3ZzD",
        "vcIpFQDN": "lvn-dvm-10-162-107-133.dvm.lvn.broadcom.net"
      },
      "nsip": "http://10.162.106.111:4827/nsips",
      "ipPoolsSpec": {
        "addresses": [
          "10.162.105.127",
          "10.162.106.165",
          "10.162.109.126",
          "10.162.108.147",
          "10.162.104.188",
          "10.162.106.120",
          "10.162.109.164",
          "10.162.108.232",
          "10.162.107.75",
          "10.162.107.188",
          "10.162.108.174",
          "10.162.106.115",
          "10.162.109.246",
          "10.162.105.204",
          "10.162.104.116",
          "10.162.105.158",
          "10.162.107.208",
          "10.162.105.58",
          "10.162.107.187",
          "10.162.107.1",
          "10.162.104.255",
          "10.162.108.243",
          "10.162.105.213",
          "10.162.105.13",
          "10.162.107.109",
          "10.162.106.43",
          "10.162.107.14",
          "10.162.105.185",
          "10.162.106.164",
          "10.162.106.105"
        ],
        "gateway": "10.162.104.1",
        "prefix": 21
      },
      "ipRanges": [
        {
          "poolName": "ippools-test-01",
          "portGroups": [
            {
              "datacenter": "dbaas-dc",
              "name": "Mgmt"
            }
          ]
        }
      ],
      "placements": [
        {
          "infraPolicyName": "infra-policy-01",
          "cluster": "dbaas-cluster",
          "datacenter": "dbaas-dc",
          "folder": "DSM",
          "portGroups": [
            "Mgmt"
          ]
        },
        {
          "infraPolicyName": "infra-policy-02-rp",
          "cluster": "dbaas-cluster",
          "datacenter": "dbaas-dc",
          "folder": "DSM",
          "portGroups": [
            "Mgmt"
          ],
          "resourcePool": "rp1"
        }
      ],
      "storagePolicies": [
        "dsm-test"
      ]
    }
  ],
  "nimbusTestBedName": "056b13a3d2e103d387b6b6e508e368ecb685a5a0",
  "podName": "lvn-cm7w16-vc1",
  "configRepo": {
    "bucket": "config",
    "url": "10.162.108.199:9000",
    "secretKey": "minioadmin",
    "accessKey": "minioadmin",
    "storageType": "PROVIDERREPO",
    "region": "NA"
  },
  "nimbusInfo": {
    "type": "nimbus-test-bed",
    "name": "056b13a3d2e103d387b6b6e508e368ecb685a5a0",
    "user_name": "wz037944",
    "podname": "lvn-cm7w16-vc1",
    "nimbusLocation": "lvn",
    "vc": [
      {
        "name": "wz037944-056b13a3d2e103d387b6b6e508e368ecb685a5a0.vc.0",
        "ip": "10.162.107.133",
        "ip4": "10.162.107.133",
        "ip6": null,
        "username": "root",
        "password": "DFQEyl9.+ipd3ZzD",
        "old_password": "vmware",
        "vm_resource": {
          "vmName": "wz037944-056b13a3d2e103d387b6b6e508e368ecb685a5a0.vc.0",
          "vmMemory": 16384,
          "vmMemoryReservation": 0,
          "numCpus": 4,
          "vmCpu": 2500,
          "vmCpuReservation": 0,
          "diskSize": 657892352
        },
        "dependencies": [],
        "pod": "lvn-cm7w16-vc1",
        "extraData": {},
        "givenName": "CDP-Test",
        "vimUsername": "administrator@vsphere.local",
        "vimPassword": "DFQEyl9.+ipd3ZzD",
        "vimPort": 443,
        "deploymentType": "embedded",
        "osFamily": "linux",
        "systemPNID": "lvn-dvm-10-162-107-133.dvm.lvn.broadcom.net"
      }
    ],
    "iscsi": [],
    "nfs": [],
    "hostdSim": [],
    "vcg": [],
    "genericVm": [],
    "pdpVm": [],
    "ovfVm": [
      {
        "name": "wz037944-056b13a3d2e103d387b6b6e508e368ecb685a5a0.ovfVm.0",
        "ip": "10.162.108.199",
        "ip4": "10.162.108.199",
        "ip6": null,
        "username": "root",
        "password": "DFQEyl9.+ipd3ZzD",
        "old_password": "ca$hc0w",
        "vm_resource": {
          "vmName": "wz037944-056b13a3d2e103d387b6b6e508e368ecb685a5a0.ovfVm.0",
          "vmMemory": 4096,
          "vmMemoryReservation": 0,
          "numCpus": 2,
          "vmCpu": 2500,
          "vmCpuReservation": 0,
          "diskSize": 204857600
        },
        "dependencies": [],
        "pod": "lvn-cm7w16-vc1",
        "extraData": {},
        "givenName": "powercli-minio",
        "systemPNID": null
      }
    ],
    "vsm": [],
    "vcd": [],
    "esx": [
      {
        "name": "wz037944-056b13a3d2e103d387b6b6e508e368ecb685a5a0.esx.0",
        "ip": "10.162.104.238",
        "ip4": "10.162.104.238",
        "ip6": null,
        "username": "root",
        "password": "DFQEyl9.+ipd3ZzD",
        "old_password": "",
        "vm_resource": {
          "vmName": "wz037944-056b13a3d2e103d387b6b6e508e368ecb685a5a0.esx.0",
          "vmMemory": 65536,
          "vmMemoryReservation": 0,
          "numCpus": 5,
          "vmCpu": 2500,
          "vmCpuReservation": 0,
          "diskSize": 2000000000
        },
        "dependencies": [],
        "pod": "lvn-cm7w16-vc1",
        "extraData": {},
        "givenName": "esx.0",
        "vimUsername": "root",
        "vimPassword": "DFQEyl9.+ipd3ZzD",
        "style": "fullInstall",
        "esxFlavor": null,
        "systemPNID": "lvn-dvm-10-162-104-238.dvm.lvn.broadcom.net",
        "guestOSlist": []
      },
      {
        "name": "wz037944-056b13a3d2e103d387b6b6e508e368ecb685a5a0.esx.1",
        "ip": "10.162.108.136",
        "ip4": "10.162.108.136",
        "ip6": null,
        "username": "root",
        "password": "DFQEyl9.+ipd3ZzD",
        "old_password": "",
        "vm_resource": {
          "vmName": "wz037944-056b13a3d2e103d387b6b6e508e368ecb685a5a0.esx.1",
          "vmMemory": 65536,
          "vmMemoryReservation": 0,
          "numCpus": 5,
          "vmCpu": 2500,
          "vmCpuReservation": 0,
          "diskSize": 2000000000
        },
        "dependencies": [],
        "pod": "lvn-cm7w16-vc1",
        "extraData": {},
        "givenName": "esx.1",
        "vimUsername": "root",
        "vimPassword": "DFQEyl9.+ipd3ZzD",
        "style": "fullInstall",
        "esxFlavor": null,
        "systemPNID": "lvn-dvm-10-162-108-136.dvm.lvn.broadcom.net",
        "guestOSlist": []
      },
      {
        "name": "wz037944-056b13a3d2e103d387b6b6e508e368ecb685a5a0.esx.2",
        "ip": "10.162.107.85",
        "ip4": "10.162.107.85",
        "ip6": null,
        "username": "root",
        "password": "DFQEyl9.+ipd3ZzD",
        "old_password": "",
        "vm_resource": {
          "vmName": "wz037944-056b13a3d2e103d387b6b6e508e368ecb685a5a0.esx.2",
          "vmMemory": 65536,
          "vmMemoryReservation": 0,
          "numCpus": 5,
          "vmCpu": 2500,
          "vmCpuReservation": 0,
          "diskSize": 2000000000
        },
        "dependencies": [],
        "pod": "lvn-cm7w16-vc1",
        "extraData": {},
        "givenName": "esx.2",
        "vimUsername": "root",
        "vimPassword": "DFQEyl9.+ipd3ZzD",
        "style": "fullInstall",
        "esxFlavor": null,
        "systemPNID": "lvn-dvm-10-162-107-85.dvm.lvn.broadcom.net",
        "guestOSlist": []
      }
    ],
    "vcBench": [],
    "vrops": [],
    "fiaasco": [],
    "vropssol": [],
    "vraCafe": [],
    "vraSso": [],
    "logInsight": [],
    "network": [],
    "sampleVm": [],
    "nsxm": [],
    "nsxc": [],
    "vnimbus": [],
    "vr": [],
    "vcaCgw": [],
    "vcaWanopt": [],
    "ucp": [],
    "worker": [
      {
        "name": "wz037944-056b13a3d2e103d387b6b6e508e368ecb685a5a0.worker.0",
        "ip": "10.162.106.111",
        "ip4": "10.162.106.111",
        "ip6": null,
        "username": "worker",
        "password": "DFQEyl9.+ipd3ZzD",
        "old_password": "ca$hc0w",
        "vm_resource": {
          "vmName": "wz037944-056b13a3d2e103d387b6b6e508e368ecb685a5a0.worker.0",
          "vmMemory": 4096,
          "vmMemoryReservation": 4096,
          "numCpus": 1,
          "vmCpu": 2500,
          "vmCpuReservation": 0,
          "diskSize": 102400000
        },
        "dependencies": [],
        "pod": "lvn-cm7w16-vc1",
        "extraData": {},
        "givenName": "worker.0",
        "systemPNID": null,
        "nsips": "http://10.162.106.111:4827/nsips"
      }
    ],
    "nsxAutoEdge": [],
    "xvp": [],
    "deployment_result": "PASS"
  }
}